【首页】【/api/home】
    敬请期待ing：

【监控信息】
    【地图监控】【/api/monitor/map】
        显示导航块： 
            车辆总数、在线车辆、离线车辆、充电车辆、故障车辆
            
            说明：是【在线车辆】、【离线车辆】、【充电车辆】小页展示，【故障车辆】到【故障信息】大菜单展示


        点击后展示表格抬头：
            序号、上报时间、车牌号、VIN、(点/熄)火、剩余电量、充电状态、车速、累计里程、总电压、总电流、车辆品牌、车辆型号、所属机构、车辆位置

            说明：车牌号为可点击链接、车辆位置可链接到地图

    【在线车辆】【/api/monitor/online】
    【离线车辆】【/api/monitor/offline】
    【充电车辆】【/api/monitor/charge】
        以上三个菜，所展示的表格抬头：
            序号、上报时间、车牌号、VIN、(点/熄)火、剩余电量、充电状态、车速、累计里程、总电压、总电流、车辆品牌、车辆型号、所属机构、车辆位置    
            
            说明：车牌号为可点击链接、车辆位置可链接到地图

    【车辆搜索】【/api/monitor/search】
        搜索项：所属机构、车辆品牌、车辆型号、车牌号、VIN、(点/熄)火、上报时间

        说明：搜索内容涵盖有故障的车辆

【故障信息】
    【实时故障】【/api/warning/today】
        所展示的表格抬头：
            序号、上报时间、VIN、车牌号、车机号、故障级别、故障名称、故障时间、车辆品牌、车辆型号、所属机构、车辆位置
        
        说明1：车牌号为可点击链接、车辆位置可链接到地图
        说明2：整页显示今日故障信息
        说明3：不用翻页、不用搜索


    【历史故障】【/api/warning/history】
        所展示的表格抬头：
            序号、VIN、车牌号、车机号、故障级别、故障名称、故障时间、车辆品牌、车辆型号、所属机构、车辆位置  

        表上方搜索项：
            搜索项：所属机构、车辆品牌、车辆型号、车牌号、VIN、故障发生时间（分别选择开始和结束）


【车辆记录】
    【行驶记录】【/api/record/travel】
        敬请期待ing：

    【充电记录】【/api/record/charge】
        敬请期待ing：



【绑定管理】
    【已绑定信息】【/api/bind/info】
        所展示的表格抬头：
            序号、VIN、车牌号、车机号、ICCID、SIM、运营商、所属机构、车辆品牌、车辆型号、绑定时间

            说明：车牌号为可点击链接

        表上方搜索项：
            车机号、车机型号


    【绑定】【/api/bind/bind】
        批量绑定：导入数据按钮，要求格式必须符合单个绑定表单提示项目和顺序

        单个绑定表单提示项目：
            VIN：必填
            车牌号：必填
            车机号：必填
            ICCID：必填
            SIM：可选
            所属机构：可选
            车辆品牌：可选
            车辆型号：可选


【车机管理】
    【车机信息】【/api/terminal/bind】
        表上方搜索项：
            车机号、车机型号、绑定状态

        所展示的表格抬头：
            序号、车机号、车机型号、当前软件型号及版本、生产厂家、出厂时间、绑定状态、车牌号、VIN、ICCID、SIM、运营商、所属机构、车辆品牌、车辆型号、绑定时间
 
        说明：绑定状态为已绑定时为链接，未绑定时，未绑定后面项全部为空

    【车机软件升级管理】【/api/terminal/soft】
        表上方搜索项：
            所属机构、车辆品牌、车辆型号、车牌号、VIN、车机型号、车机号

        所展示的表格抬头：
            序号、所属机构、车辆品牌、车辆型号、车牌号、VIN、车机号、车机型号、当前软件版本、升级时间、目标软件版本、是否需要升级、操作


    【车机原始数据】【/api/terminal/sourcedata】
        所展示的表格抬头：
            序号、上报时间、报文、复制

【统计报表】
    【里程统计】【/api/report/mileage】
        敬请期待ing：
    【充电统计】【/api/report/charge】
        敬请期待ing：
    【故障统计】【/api/report/warning】
        敬请期待ing：